<?xml version="1.0" encoding="UTF-8" standalone="no"?>
<svg
   xmlns:dc="http://purl.org/dc/elements/1.1/"
   xmlns:cc="http://creativecommons.org/ns#"
   xmlns:rdf="http://www.w3.org/1999/02/22-rdf-syntax-ns#"
   xmlns:svg="http://www.w3.org/2000/svg"
   xmlns="http://www.w3.org/2000/svg"
   xmlns:sodipodi="http://sodipodi.sourceforge.net/DTD/sodipodi-0.dtd"
   xmlns:inkscape="http://www.inkscape.org/namespaces/inkscape"
   version="1.1"
   id="svg2"
   xml:space="preserve"
   width="90.666664"
   height="90.666664"
   viewBox="0 0 90.666664 90.666664"
   sodipodi:docname="logonew.eps"><metadata
     id="metadata8"><rdf:RDF><cc:Work
         rdf:about=""><dc:format>image/svg+xml</dc:format><dc:type
           rdf:resource="http://purl.org/dc/dcmitype/StillImage" /></cc:Work></rdf:RDF></metadata><defs
     id="defs6" /><sodipodi:namedview
     pagecolor="#ffffff"
     bordercolor="#666666"
     borderopacity="1"
     objecttolerance="10"
     gridtolerance="10"
     guidetolerance="10"
     inkscape:pageopacity="0"
     inkscape:pageshadow="2"
     inkscape:window-width="640"
     inkscape:window-height="480"
     id="namedview4" /><g
     id="g10"
     inkscape:groupmode="layer"
     inkscape:label="ink_ext_XXXXXX"
     transform="matrix(1.3333333,0,0,-1.3333333,0,90.666667)"><g
       id="g12"
       transform="scale(0.1)"><path
         d="M 680,340 C 680,152.227 527.773,0 340,0 152.223,0 0,152.227 0,340 0,527.777 152.223,680 340,680 527.773,680 680,527.777 680,340"
         style="fill:#ffffff;fill-opacity:1;fill-rule:nonzero;stroke:none"
         id="path14" /><path
         d="m 340,71.2695 c -85.691,0 -165.016,45.2935 -212.191,121.1525 -3.137,5.039 -1.817,11.816 2.945,15.129 4.758,3.316 11.16,1.922 14.297,-3.117 C 188.395,134.727 261.277,93.1133 340,93.1133 c 55.535,0 109.348,21.0197 151.492,59.1717 41.692,37.742 69.594,89.895 78.559,146.836 0.933,5.957 6.238,9.973 11.875,8.984 5.613,-0.996 9.414,-6.621 8.472,-12.57 C 580.645,233.523 550.281,176.758 504.902,135.676 459.023,94.1406 400.461,71.2695 340,71.2695"
         style="fill:#eb232c;fill-opacity:1;fill-rule:nonzero;stroke:none"
         id="path16" /><path
         d="m 115.211,428.477 c -1.328,0 -2.676,0.261 -3.977,0.839 -5.257,2.332 -7.738,8.731 -5.543,14.297 19.09,48.305 50.879,89.43 91.946,118.922 42.086,30.223 91.308,46.199 142.363,46.199 62.793,0 123.066,-24.457 169.707,-68.871 4.238,-4.035 4.59,-10.941 0.773,-15.429 -3.808,-4.485 -10.335,-4.848 -14.574,-0.817 -42.847,40.801 -98.218,63.27 -155.906,63.27 -46.902,0 -92.117,-14.676 -130.777,-42.434 -37.739,-27.105 -66.953,-64.887 -84.489,-109.265 -1.652,-4.192 -5.488,-6.711 -9.523,-6.711"
         style="fill:#eb232c;fill-opacity:1;fill-rule:nonzero;stroke:none"
         id="path18" /><path
         d="m 196.5,398.457 c -2.457,3.457 -5.848,6.398 -10.133,8.828 -4.301,2.434 -9.34,4.375 -15.121,5.828 -5.781,1.457 -12.008,2.383 -18.668,2.785 -6.66,0.403 -13.609,0.274 -20.836,-0.378 -7.226,-0.649 -14.418,-1.848 -21.578,-3.594 -6.144,-1.504 -12.1288,-3.41 -17.9452,-5.703 -5.8204,-2.317 -11.3438,-5.032 -16.5547,-8.176 -5.2149,-3.137 -10.0157,-6.68 -14.3985,-10.613 -4.3867,-3.965 -8.164,-8.371 -11.3398,-13.246 -3.1719,-4.872 -5.6289,-10.165 -7.3789,-15.868 -1.7383,-5.703 -2.586,-11.875 -2.5469,-18.496 0.043,-6.836 1.4609,-9.914 4.2422,-9.226 2.0312,0.496 4.6445,3.132 7.8516,7.937 3.2031,4.793 6.8398,11.707 10.9101,20.742 2.0117,3.411 4.957,6.746 8.8359,10.008 3.879,3.274 8.336,6.242 13.3594,8.938 5.0313,2.683 10.4571,5.078 16.2808,7.187 4.239,1.582 10.192,3.313 17.856,5.188 4.75,1.16 9.437,2.078 14.062,2.769 4.629,0.688 9.036,1.086 13.219,1.196 4.188,0.105 8.063,-0.09 11.613,-0.586 3.555,-0.481 6.653,-1.313 9.293,-2.473 2.637,-1.152 4.696,-2.688 6.165,-4.602 1.472,-1.922 2.218,-4.238 2.234,-6.941 0.023,-4.148 -0.895,-8.262 -2.731,-12.356 -1.851,-4.089 -4.492,-7.91 -7.921,-11.46 -3.438,-3.567 -7.61,-6.743 -12.512,-9.536 -4.899,-2.8 -10.387,-4.937 -16.465,-6.421 -2.598,-0.637 -5.02,-1.106 -7.27,-1.418 -2.25,-0.313 -4.742,-0.801 -7.46,-1.465 -2.032,-0.496 -3.629,-1.067 -4.801,-1.692 -1.164,-0.613 -2.051,-1.336 -2.645,-2.168 -0.601,-0.816 -0.972,-1.773 -1.125,-2.859 -0.148,-1.094 -0.222,-2.344 -0.215,-3.762 0.02,-3.015 0.735,-5.301 2.133,-6.844 1.406,-1.55 3.238,-2.683 5.496,-3.398 2.25,-0.73 4.824,-1.152 7.707,-1.269 2.895,-0.118 5.84,-0.247 8.856,-0.372 3.015,-0.128 5.965,-0.371 8.851,-0.742 2.891,-0.359 5.465,-1.172 7.727,-2.414 2.258,-1.25 4.09,-3.035 5.5,-5.359 1.414,-2.317 2.129,-5.481 2.152,-9.492 0.047,-7.461 -1.101,-13.875 -3.445,-19.266 -2.356,-5.383 -5.481,-10.09 -9.387,-14.121 -3.902,-4.043 -8.39,-7.387 -13.449,-10.039 -5.059,-2.649 -10.277,-4.641 -15.664,-5.949 -4.434,-1.082 -8.871,-1.692 -13.309,-1.805 -4.441,-0.117 -8.5973,0.039 -12.4684,0.476 -0.5078,0.293 -0.8946,0.84 -1.1485,1.641 -0.2617,0.801 -0.4726,1.699 -0.6367,2.703 -0.1641,0.996 -0.25,1.977 -0.2578,2.942 -0.0039,0.976 -0.0078,1.726 -0.0117,2.285 -0.0196,3.429 0.0039,7.019 0.0703,10.769 0.082,3.774 0.2031,7.551 0.3633,11.368 0.1679,3.82 0.3476,7.726 0.5468,11.718 0.1993,4.004 0.4454,7.649 0.7422,10.942 0.4727,5.82 1.125,11.812 1.9375,17.976 0.8164,6.184 1.7539,11.414 2.8086,15.723 1.0508,4.316 2.5894,9.316 4.6214,15.039 2.019,5.703 4.476,11.047 7.367,16.008 -3.137,4.801 -7.024,6.636 -11.6407,5.515 -3.6797,-0.898 -7.7539,-3.554 -12.2266,-7.988 -5.0859,-9.402 -8.9883,-18.75 -11.7265,-28.058 -2.7344,-9.305 -4.8907,-19.989 -6.461,-32.071 -1.5859,-12.066 -2.6015,-24.129 -3.0625,-36.172 -0.4648,-12.05 -0.664,-23.75 -0.5976,-35.117 0.0156,-2.242 0.7031,-3.633 2.0703,-4.168 1.3672,-0.547 2.9453,-0.82 4.7187,-0.832 4,-0.445 8.25,-0.75 12.7539,-0.894 4.5078,-0.161 9.086,-0.11 13.75,0.117 4.656,0.23 9.273,0.64 13.836,1.219 4.562,0.593 8.902,1.375 13.02,2.382 6.527,1.602 12.507,3.821 17.949,6.641 5.429,2.832 10.312,6.074 14.636,9.727 4.325,3.652 8.086,7.617 11.293,11.906 3.215,4.273 5.879,8.679 8.016,13.203 2.129,4.512 3.715,9.059 4.766,13.66 1.054,4.59 1.566,8.977 1.543,13.164 -0.036,5.32 -0.86,10.36 -2.473,15.125 -1.613,4.758 -4.02,8.598 -7.207,11.527 -3.191,2.918 -7.137,4.891 -11.836,5.926 -4.707,1.035 -10.184,0.782 -16.453,-0.754 9.879,2.618 18.34,6.125 25.387,10.493 7.043,4.363 12.82,9.16 17.324,14.363 4.5,5.207 7.801,10.613 9.894,16.222 2.086,5.594 3.118,11.012 3.082,16.231 -0.023,4.383 -1.269,8.301 -3.734,11.746"
         style="fill:#eb232c;fill-opacity:1;fill-rule:nonzero;stroke:none"
         id="path20" /><path
         d="m 221.07,379.578 c 2.68,-2.176 6.801,-2.586 12.383,-1.219 3.223,0.789 5.996,1.993 8.293,3.621 2.309,1.625 4.223,3.469 5.727,5.547 1.511,2.082 2.605,4.289 3.289,6.653 0.683,2.351 1.015,4.687 1.008,7.011 -0.024,2.52 -0.461,4.598 -1.332,6.231 -0.86,1.641 -2.032,2.844 -3.485,3.613 -1.473,0.774 -3.183,1.192 -5.144,1.25 -1.969,0.07 -4.067,-0.168 -6.282,-0.715 -3.547,-0.867 -6.504,-2.175 -8.871,-3.953 -2.371,-1.777 -4.258,-3.711 -5.679,-5.801 -1.407,-2.089 -2.43,-4.199 -3.051,-6.336 -0.617,-2.14 -0.922,-3.988 -0.914,-5.546 0.027,-4.719 1.383,-8.157 4.058,-10.356"
         style="fill:#eb232c;fill-opacity:1;fill-rule:nonzero;stroke:none"
         id="path22" /><path
         d="m 568.945,401.348 c 0.118,2.082 0.684,4.836 1.719,8.261 1.024,3.426 1.934,6.321 2.715,8.661 0.781,2.343 1.816,4.511 3.113,6.515 1.289,2 2.91,3.778 4.836,5.305 1.934,1.543 4.27,2.637 7,3.301 1.535,0.379 2.824,-0.266 3.891,-1.926 1.051,-1.668 1.59,-3.985 1.609,-6.953 0.012,-2.117 -1.086,-5.071 -3.281,-8.86 -2.219,-3.777 -4.473,-6.914 -6.777,-9.39 -2.317,-2.492 -4.817,-4.68 -7.508,-6.555 -2.688,-1.887 -5.188,-3.105 -7.473,-3.672 -0.012,1.465 0.039,3.223 0.156,5.313 z M 548.34,369.387 c -0.156,0.484 -0.281,0.965 -0.418,1.453 0.137,-0.488 0.262,-0.969 0.418,-1.453 0.332,-1.074 0.703,-2.121 1.113,-3.117 -0.41,0.996 -0.781,2.043 -1.113,3.117 z m -30.813,46.265 c 0.286,7.004 1.25,15.293 2.903,24.879 1.64,9.582 2.422,14.133 2.468,14.371 0.071,0.27 1.36,5.289 4.094,15.852 2.735,10.551 5.086,18.273 7.078,23.141 1.985,4.875 3.977,8.843 5.957,11.906 2.004,3.054 3.868,4.801 5.618,5.222 0.476,0.122 0.761,-0.503 0.871,-1.882 0.086,-1.375 0.144,-3.051 0.156,-5.024 -0.527,-6.351 -1.828,-13.379 -3.879,-21.082 -2.051,-7.707 -4.492,-15.519 -7.305,-23.449 -2.812,-7.926 -5.8,-15.691 -8.972,-23.297 -3.164,-7.605 -6.164,-14.48 -8.989,-20.637 z M 366.086,265.43 c -0.363,-3.477 -0.676,-6.446 -0.941,-8.926 -0.262,-2.473 -0.672,-4.758 -1.219,-6.856 -0.996,-3.906 -1.817,-7.031 -2.473,-9.382 -0.64,-2.368 -1.394,-4.786 -2.234,-7.258 -0.852,-2.481 -1.641,-4.422 -2.395,-5.86 -0.75,-1.433 -1.629,-2.812 -2.636,-4.101 -1.004,-1.301 -2.118,-2.293 -3.321,-2.996 -1.199,-0.696 -2.554,-1.235 -4.082,-1.606 -4.168,-1.023 -5.242,1.965 -3.18,8.965 2.489,8.332 5.868,16.738 10.133,25.235 4.282,8.488 8.625,14.96 13.047,19.433 -0.097,-0.965 -0.34,-3.183 -0.699,-6.648 z m 261.582,143.508 c -2.465,-3.118 -5.449,-6.504 -8.984,-10.188 -3.528,-3.684 -7.289,-7.195 -11.25,-10.547 -3.989,-3.359 -8.071,-6.348 -12.278,-8.965 -4.199,-2.605 -8.203,-4.383 -12.004,-5.312 -1.211,-0.293 -2.332,-0.442 -3.386,-0.43 -1.055,0.012 -2.051,0.227 -3.008,0.652 -0.957,0.43 -1.903,1.125 -2.832,2.09 -0.938,0.957 -1.875,2.231 -2.84,3.774 5.508,2.937 10.625,6.402 15.332,10.41 4.715,3.992 8.77,8.23 12.176,12.715 3.41,4.461 6.379,9.558 8.918,15.281 2.547,5.723 3.797,10.625 3.777,14.727 -0.027,3.847 -0.684,7.171 -1.973,9.968 -1.289,2.793 -3.054,5.016 -5.324,6.66 -2.262,1.645 -4.922,2.707 -7.976,3.176 -3.047,0.473 -6.348,0.278 -9.903,-0.59 -4.343,-1.058 -8.3,-2.847 -11.843,-5.351 -3.547,-2.504 -6.75,-5.488 -9.602,-8.973 -2.844,-3.465 -5.332,-7.273 -7.449,-11.441 -2.121,-4.153 -3.879,-8.418 -5.278,-12.766 -1.382,-4.348 -2.73,-9.277 -4.019,-14.773 -1.289,-5.492 -1.926,-10.11 -1.899,-13.852 0.012,-2.754 0.207,-5.398 0.559,-7.945 0.195,-1.367 0.438,-2.719 0.731,-4.028 -0.293,1.309 -0.536,2.649 -0.731,4.028 -0.754,-0.742 -1.504,-1.469 -2.246,-2.168 -1.738,-1.66 -3.555,-3.313 -5.43,-4.973 -1.863,-1.648 -3.703,-3.152 -5.476,-4.512 -1.782,-1.347 -3.457,-2.5 -5.051,-3.437 -1.582,-0.93 -2.988,-1.543 -4.219,-1.848 -0.508,-0.125 -1.055,0.141 -1.633,0.774 -0.574,0.652 -1.121,1.57 -1.629,2.785 -0.527,1.211 -0.964,2.598 -1.32,4.187 -0.359,1.582 -0.547,3.262 -0.555,5.032 l -0.007,1.433 c 0.172,1.407 0.425,2.871 0.742,4.383 0.301,1.508 0.613,2.934 0.918,4.27 0.32,1.336 0.64,2.597 0.984,3.781 0.344,1.172 0.664,2.137 0.985,2.898 2.882,6.848 6.039,13.914 9.457,21.184 3.418,7.273 6.824,14.637 10.203,22.098 3.386,7.468 6.633,14.96 9.758,22.464 3.113,7.5 5.859,14.899 8.218,22.184 2.364,7.281 4.239,14.41 5.61,21.387 1.375,6.976 2.047,13.656 2.007,20.05 -0.015,2.579 -0.253,5.047 -0.71,7.418 -0.458,2.375 -1.243,4.415 -2.344,6.106 -1.106,1.699 -2.617,2.898 -4.531,3.633 -1.922,0.726 -4.344,0.73 -7.278,0.015 -4.031,-0.988 -7.984,-3.183 -11.875,-6.601 -3.887,-3.418 -7.605,-7.731 -11.172,-12.914 -3.55,-5.199 -6.941,-11.09 -10.175,-17.699 -3.219,-6.606 -6.208,-13.59 -8.946,-20.95 -2.754,-7.371 -5.469,-16.922 -8.172,-28.664 -2.695,-11.742 -3.972,-17.316 -4.043,-17.609 -0.047,-0.285 -0.879,-5.766 -2.636,-17.285 -1.77,-11.535 -2.618,-20.61 -2.578,-27.239 0.031,-3.945 0.207,-7.761 0.546,-11.445 -1.679,-2.5 -3.546,-5.129 -5.586,-7.859 -3.339,-4.477 -6.843,-8.684 -10.539,-12.629 -3.679,-3.945 -7.351,-7.371 -11.023,-10.266 -3.652,-2.887 -7.012,-4.707 -10.051,-5.457 -3.086,-0.754 -5.613,-0.644 -7.586,0.344 -1.965,0.965 -3.562,2.398 -4.804,4.305 -1.243,1.894 -2.082,4.113 -2.5,6.652 -0.43,2.535 -0.657,5.019 -0.665,7.461 -0.007,1.617 0.04,3.641 0.157,6.07 0.105,2.434 0.422,5.031 0.949,7.805 0.516,2.766 1.394,6.25 2.637,10.437 1.226,4.211 2.488,7.524 3.765,9.973 1.282,2.441 2.832,4.551 4.66,6.316 1.817,1.77 4.024,2.969 6.602,3.594 1.074,0.266 1.77,-0.105 2.09,-1.109 0.32,-1.008 0.488,-2.324 0.5,-3.945 0.078,-1.875 0.055,-3.11 -0.07,-3.672 -0.918,-4.161 -1.473,-6.789 -1.661,-7.922 -0.546,-2.168 -0.058,-4.383 1.504,-6.641 0.938,-1.465 3.008,-1.808 6.223,-1.015 2.117,0.515 4.019,1.511 5.691,3.007 1.668,1.493 3.391,3.953 5.149,7.41 1.765,3.442 2.945,6.348 3.554,8.743 0.606,2.375 0.899,4.715 0.887,7.019 -0.019,3.313 -0.703,6.242 -2.031,8.789 -1.34,2.563 -3.164,4.602 -5.496,6.133 -2.348,1.516 -5.149,2.473 -8.43,2.863 -3.269,0.379 -6.836,0.11 -10.676,-0.832 -4.265,-1.043 -8.171,-2.832 -11.726,-5.359 -3.567,-2.52 -6.778,-5.547 -9.656,-9.063 -2.883,-3.503 -5.414,-7.402 -7.582,-11.652 -2.176,-4.258 -3.993,-8.609 -5.465,-13.062 -1.477,-4.465 -2.832,-9.59 -4.075,-15.371 -1.242,-5.793 -1.843,-10.645 -1.828,-14.575 0.012,-1.492 0.078,-2.957 0.207,-4.39 0.325,-3.828 1.055,-7.446 2.188,-10.864 -1.133,3.418 -1.863,7.036 -2.188,10.864 -1.621,-2.707 -3.164,-5.176 -4.629,-7.422 -3.339,-5.11 -6.359,-9.414 -9.062,-12.922 -2.703,-3.496 -5.164,-6.375 -7.383,-8.606 -2.207,-2.222 -4.277,-4.16 -6.191,-5.769 1.594,11.934 3.164,23.113 4.707,33.555 0.683,4.414 1.57,10.254 2.668,17.507 1.094,7.258 1.941,12.895 2.547,16.914 0.617,4.028 1.164,7.61 1.64,10.762 0.469,3.164 0.852,5.664 1.145,7.551 0.183,0.852 0.269,1.594 0.269,2.195 -0.007,1.965 -0.691,3.242 -2.027,3.828 -1.34,0.586 -2.988,0.649 -4.953,0.168 -1.652,-0.398 -3.399,-1.132 -5.235,-2.199 -1.835,-1.055 -3.601,-2.422 -5.312,-4.09 -1.699,-1.672 -3.184,-3.547 -4.441,-5.605 -1.321,-2.149 -2.2,-4.395 -2.629,-6.738 l -7.383,-39.793 c -0.235,-2.246 -0.774,-5.098 -1.61,-8.579 -0.832,-3.472 -1.945,-6.914 -3.312,-10.32 -1.375,-3.406 -3.008,-6.433 -4.902,-9.082 -1.883,-2.637 -3.996,-4.25 -6.336,-4.812 -1.465,-0.364 -2.668,-0.266 -3.625,0.293 -0.957,0.554 -1.719,1.382 -2.293,2.515 -0.578,1.125 -0.989,2.461 -1.211,4.016 -0.238,1.555 -0.363,3.183 -0.371,4.883 -0.024,3.293 0.332,7.109 1.062,11.484 0.723,4.375 1.707,10.281 2.949,17.742 1.243,7.453 2.227,13.43 2.969,17.903 0.742,4.472 1.668,8.41 2.774,11.789 0.363,1.101 0.625,2.117 0.769,3.035 0.149,0.918 0.227,1.75 0.219,2.488 -0.012,2.512 -0.82,4.16 -2.402,4.953 -1.594,0.801 -3.5,0.93 -5.715,0.391 -2.598,-0.637 -5.254,-2.078 -7.969,-4.336 -2.715,-2.258 -4.785,-5.078 -6.223,-8.477 -1.929,-4.746 -3.648,-9.375 -5.144,-13.906 -1.492,-4.531 -2.774,-10.535 -3.848,-18.008 -1.062,-7.48 -1.965,-13.75 -2.695,-18.84 -0.059,-0.41 -0.117,-0.82 -0.164,-1.226 -0.981,-1.36 -1.992,-2.754 -3.059,-4.192 -3.34,-4.472 -6.848,-8.679 -10.527,-12.617 -3.692,-3.957 -7.363,-7.375 -11.028,-10.261 -3.66,-2.903 -7.007,-4.719 -10.046,-5.461 -3.094,-0.75 -5.625,-0.645 -7.586,0.332 -1.965,0.976 -3.567,2.414 -4.817,4.304 -1.238,1.899 -2.07,4.114 -2.488,6.653 -0.434,2.539 -0.656,5.019 -0.664,7.461 -0.012,1.621 0.039,3.652 0.144,6.086 0.118,2.429 0.43,5.027 0.95,7.793 0.515,2.773 1.406,6.25 2.632,10.449 1.243,4.199 2.5,7.515 3.782,9.961 1.281,2.449 2.832,4.547 4.648,6.316 1.824,1.77 4.024,2.969 6.61,3.606 1.078,0.261 1.769,-0.11 2.089,-1.118 0.325,-1.004 0.493,-2.324 0.5,-3.953 0.078,-1.863 0.047,-3.094 -0.066,-3.672 -0.93,-4.148 -1.477,-6.789 -1.66,-7.922 -0.559,-2.156 -0.063,-4.375 1.492,-6.636 0.945,-1.465 3.02,-1.797 6.223,-1.02 2.129,0.52 4.019,1.516 5.691,3.012 1.672,1.492 3.391,3.965 5.156,7.41 1.77,3.438 2.95,6.359 3.555,8.738 0.605,2.383 0.898,4.719 0.879,7.024 -0.02,3.308 -0.692,6.238 -2.031,8.801 -1.328,2.546 -3.164,4.597 -5.496,6.121 -2.344,1.523 -5.149,2.48 -8.418,2.871 -3.286,0.383 -6.836,0.097 -10.688,-0.84 -4.258,-1.035 -8.172,-2.82 -11.726,-5.359 -3.555,-2.524 -6.766,-5.547 -9.661,-9.055 -2.871,-3.516 -5.398,-7.402 -7.578,-11.652 -2.176,-4.254 -3.992,-8.614 -5.469,-13.067 -1.46,-4.461 -2.82,-9.59 -4.058,-15.379 -1.242,-5.793 -1.859,-10.644 -1.828,-14.558 0.019,-3.047 0.273,-5.957 0.761,-8.762 0.071,-0.371 0.137,-0.742 0.215,-1.113 -0.078,0.371 -0.144,0.742 -0.215,1.113 -1.796,-2.078 -3.625,-4.133 -5.476,-6.152 -2.832,-3.106 -5.637,-5.84 -8.414,-8.204 -2.785,-2.375 -5.305,-3.835 -7.59,-4.394 -1.961,-0.488 -3.266,0.098 -3.91,1.738 -0.641,1.629 -0.977,3.977 -0.996,7.012 -0.02,3.113 0.422,6.672 1.304,10.703 0.891,4.023 1.622,8.035 2.196,12.031 0.57,3.992 1.668,8.926 3.261,14.793 1.598,5.864 2.805,10.625 3.614,14.309 0.812,3.672 1.535,6.953 2.168,9.824 0.633,2.871 0.949,5.059 0.937,6.543 -0.008,1.758 -0.488,3.047 -1.426,3.867 -0.941,0.821 -2.718,0.918 -5.332,0.274 -1.429,-0.352 -3.031,-0.926 -4.796,-1.739 -1.782,-0.808 -3.485,-1.804 -5.133,-3 -1.637,-1.179 -3.114,-2.554 -4.41,-4.109 -1.426,-1.707 -2.289,-3.469 -2.586,-5.254 -0.555,-2.566 -2.004,-8.191 -4.364,-16.855 -2.523,-10.547 -4.214,-17.364 -5.058,-20.457 -0.512,-1.582 -1.649,-8.469 -3.399,-20.657 -0.851,-5.91 -1.261,-10.984 -1.238,-15.234 0.02,-3.059 0.332,-5.773 0.949,-8.152 0.617,-2.383 1.629,-4.289 3.035,-5.715 1.403,-1.414 3.231,-2.344 5.489,-2.774 2.254,-0.429 5.027,-0.234 8.324,0.567 3.672,0.898 7.551,2.558 11.625,4.98 4.078,2.41 8.066,5.156 11.976,8.25 3.918,3.098 7.559,6.321 10.942,9.692 1.308,1.304 2.539,2.566 3.68,3.789 -0.379,0.574 -0.743,1.172 -1.094,1.785 0.351,-0.613 0.715,-1.211 1.094,-1.785 0.937,-1.418 1.984,-2.715 3.125,-3.91 3.027,-3.125 6.757,-5.29 11.211,-6.5 4.433,-1.223 9.597,-1.106 15.457,0.32 3.351,0.82 6.652,2.187 9.906,4.094 3.25,1.914 6.375,4.136 9.375,6.668 2.996,2.519 5.879,5.273 8.609,8.242 2.746,2.969 5.278,5.969 7.61,8.972 0.925,1.196 1.855,2.414 2.761,3.645 0.344,-1.953 0.864,-3.75 1.543,-5.383 1.36,-3.23 3.149,-5.801 5.383,-7.73 2.227,-1.926 4.797,-3.196 7.688,-3.813 2.886,-0.613 5.847,-0.547 8.882,0.195 3.489,0.852 7.082,2.727 10.774,5.598 3.691,2.883 7.234,6.34 10.644,10.391 l -2.019,-12.766 c -3.977,-4.695 -7.383,-9.012 -10.246,-12.957 -2.864,-3.945 -6.492,-9.133 -10.899,-15.547 -2.195,-3.113 -4.297,-6.496 -6.308,-10.176 -2.012,-3.73 -3.489,-6.582 -4.422,-8.535 -0.942,-1.953 -2.571,-5.437 -4.883,-10.476 -4.133,-8.989 -5.93,-17.004 -5.371,-24.043 0.269,-3.723 1.148,-6.809 2.625,-9.25 1.465,-2.449 3.34,-4.207 5.625,-5.274 2.285,-1.062 4.812,-1.648 7.566,-1.75 2.754,-0.105 5.735,0.239 8.965,1.02 3.985,0.973 7.649,2.547 10.988,4.715 3.34,2.175 6.192,4.66 8.543,7.429 2.368,2.778 4.512,5.957 6.45,9.551 1.941,3.586 3.504,7.11 4.683,10.539 1.184,3.446 2.207,7.156 3.071,11.114 0.867,3.972 1.453,7.46 1.785,10.48 0.324,3.008 0.672,6.18 1.047,9.5 0.078,1.355 0.293,3.34 0.64,5.906 0.781,8.938 1.477,15.078 2.102,18.442 0.625,3.367 1.797,5.867 3.523,7.515 7.094,6.809 11.262,10.942 12.524,12.395 4.16,4.57 6.461,7.082 6.902,7.519 1.387,1.414 3.652,4.051 6.797,7.918 1.797,2.246 3.496,4.516 5.105,6.809 v 0 c 0.918,-1.375 1.946,-2.637 3.059,-3.801 3.027,-3.113 6.75,-5.281 11.199,-6.492 4.445,-1.231 9.602,-1.113 15.461,0.32 3.352,0.821 6.648,2.192 9.91,4.094 3.254,1.914 6.379,4.141 9.375,6.66 3,2.527 5.871,5.281 8.606,8.25 2.746,2.973 5.285,5.957 7.605,8.969 2.961,3.797 5.805,7.793 8.535,11.988 1.059,-4.012 2.317,-7.605 3.782,-10.777 2.207,-4.797 4.785,-8.41 7.734,-10.863 2.961,-2.442 6.141,-3.25 9.551,-2.411 2.215,0.536 4.59,1.426 7.136,2.657 2.532,1.242 5.137,2.683 7.805,4.375 2.676,1.679 5.32,3.504 7.957,5.468 2.641,1.961 5.188,3.926 7.656,5.887 1.875,1.524 3.762,3.098 5.657,4.731 -0.95,1.14 -1.805,2.371 -2.586,3.687 0.781,-1.316 1.636,-2.547 2.586,-3.687 0.3,-0.364 0.617,-0.723 0.925,-1.067 2.981,-3.23 6.704,-5.476 11.157,-6.738 4.453,-1.25 9.629,-1.16 15.547,0.281 3.796,0.942 7.554,2.324 11.25,4.16 3.699,1.86 7.273,3.977 10.718,6.391 3.442,2.41 6.723,5.008 9.848,7.793 3.125,2.793 6.043,5.555 8.75,8.308 6.238,6.407 12.129,13.465 17.664,21.165 l -12.332,10.293"
         style="fill:#eb232c;fill-opacity:1;fill-rule:nonzero;stroke:none"
         id="path24" /><path
         d="m 340,40 c -2.852,0 -5.156,2.4414 -5.156,5.4609 0,3.0157 2.304,5.4688 5.156,5.4688 66.023,0 129.758,25.2695 179.441,71.1603 49.219,45.461 81.465,107.969 90.793,176.023 0.411,2.992 3.036,5.051 5.852,4.621 2.82,-0.429 4.773,-3.203 4.363,-6.191 C 610.762,225.906 577.305,161.035 526.23,113.855 474.656,66.2305 408.523,40 340,40"
         style="fill:#eb232c;fill-opacity:1;fill-rule:nonzero;stroke:none"
         id="path26" /><path
         d="m 78.0039,433.938 c -0.582,0 -1.168,0.105 -1.7422,0.32 -2.6836,1.015 -4.0781,4.148 -3.1172,6.988 19.5157,57.633 54.7935,107.02 102.0315,142.828 C 223.441,620.66 280.438,640 340,640 c 2.852,0 5.156,-2.445 5.156,-5.465 0,-3.012 -2.304,-5.457 -5.156,-5.457 -57.395,0 -112.312,-18.633 -158.816,-53.887 -45.52,-34.507 -79.52,-82.101 -98.3246,-137.632 -0.7539,-2.227 -2.7422,-3.621 -4.8555,-3.621"
         style="fill:#eb232c;fill-opacity:1;fill-rule:nonzero;stroke:none"
         id="path28" /><path
         d="m 239.121,464.258 c -2.719,0.918 -6.223,1.508 -10.531,1.801 -4.156,0.218 -7.106,0.804 -8.824,1.793 -1.719,0.988 -2.586,2.836 -2.602,5.531 -0.019,3.137 0.922,5.851 2.836,8.148 1.934,2.309 4.551,3.867 7.887,4.684 5.547,1.359 10.633,0.152 15.238,-3.594 l 3.066,9.801 c -2.089,2.055 -4.765,3.402 -8.039,4.047 -3.269,0.648 -6.707,0.523 -10.332,-0.364 -3.953,-0.968 -7.437,-2.707 -10.441,-5.25 -3.004,-2.527 -5.324,-5.558 -6.945,-9.097 -1.618,-3.555 -2.422,-7.332 -2.399,-11.375 0.035,-5.637 1.539,-9.567 4.504,-11.809 2.957,-2.226 7.68,-3.48 14.156,-3.75 4.168,-0.215 7.149,-0.777 8.965,-1.719 1.82,-0.921 2.746,-2.679 2.762,-5.238 0.019,-3.023 -0.949,-5.594 -2.899,-7.746 -1.949,-2.133 -4.695,-3.644 -8.273,-4.523 -3.23,-0.793 -6.219,-0.918 -8.953,-0.395 -2.731,0.512 -5.367,1.711 -7.887,3.598 l -3.137,-9.817 c 2.438,-2.031 5.379,-3.332 8.836,-3.894 3.457,-0.578 7.172,-0.363 11.125,0.601 4.207,1.028 7.84,2.739 10.93,5.176 3.074,2.403 5.422,5.356 7.039,8.789 1.633,3.446 2.426,7.223 2.402,11.321 -0.027,3.711 -0.769,6.636 -2.234,8.742 -1.465,2.105 -3.547,3.621 -6.25,4.539"
         style="fill:#eb232c;fill-opacity:1;fill-rule:nonzero;stroke:none"
         id="path30" /><path
         d="m 306.113,514.371 0.176,-28.648 -26.434,-6.461 -0.175,28.648 -9.2,-2.246 0.418,-68.437 9.2,2.246 -0.188,29.707 26.438,6.461 0.183,-29.707 9.258,2.265 -0.418,68.438 -9.258,-2.266"
         style="fill:#eb232c;fill-opacity:1;fill-rule:nonzero;stroke:none"
         id="path32" /><path
         d="m 375.371,478.352 c -2.637,-5.024 -6.34,-8.102 -11.125,-9.274 -4.773,-1.168 -8.492,0.102 -11.18,3.82 -2.695,3.711 -4.043,9.625 -4.089,17.766 -0.059,8.141 1.226,14.691 3.867,19.633 2.625,4.941 6.316,8.004 11.101,9.172 4.785,1.172 8.504,-0.098 11.2,-3.778 2.675,-3.66 4.043,-9.546 4.093,-17.628 0.059,-8.141 -1.242,-14.7 -3.867,-19.711 z m 1.609,49.968 c -3.71,1.922 -8.062,2.266 -13.093,1.039 -5.02,-1.222 -9.367,-3.695 -13.047,-7.429 -3.684,-3.711 -6.477,-8.461 -8.43,-14.235 -1.949,-5.757 -2.906,-12.215 -2.859,-19.332 0.039,-7.175 1.086,-13.168 3.125,-17.949 2.031,-4.801 4.902,-8.187 8.613,-10.133 3.711,-1.941 8.059,-2.308 13.027,-1.093 5.032,1.234 9.356,3.71 13.02,7.46 3.641,3.743 6.441,8.512 8.387,14.29 1.953,5.757 2.898,12.226 2.851,19.406 -0.039,7.117 -1.054,13.094 -3.039,17.886 -1.988,4.817 -4.844,8.188 -8.555,10.09"
         style="fill:#eb232c;fill-opacity:1;fill-rule:nonzero;stroke:none"
         id="path34" /><path
         d="m 441.211,519.723 c -1.648,-2.18 -4.094,-3.664 -7.324,-4.453 l -11.946,-2.915 -0.125,20.676 11.946,2.922 c 3.289,0.805 5.75,0.524 7.398,-0.851 1.653,-1.352 2.492,-3.723 2.512,-7.133 0.019,-3.324 -0.801,-6.09 -2.461,-8.246 z m 6.57,23.933 c -3.113,2.805 -7.449,3.516 -12.996,2.164 l -22.375,-5.468 0.422,-68.438 9.348,2.285 -0.176,28.551 13.023,3.184 c 5.508,1.347 9.797,4.187 12.895,8.531 3.094,4.351 4.617,9.601 4.578,15.762 -0.039,6.156 -1.602,10.628 -4.719,13.429"
         style="fill:#eb232c;fill-opacity:1;fill-rule:nonzero;stroke:none"
         id="path36" /></g></g></svg>
